Lab 06
…
10/6/2021

Download the Data

fn <- "mtsamples.csv"
if (!file.exists(fn))
  download.file("https://raw.githubusercontent.com/USCbiostats/data-science-data/master/00_mtsamples/mtsamples.csv", destfile = fn)

library(tibble)

mtsamples <- read.csv(fn)
mtsamples <- as_tibble(mtsamples)
mtsamples

## # A tibble: 4,999 x 6
##        X description    medical_special sample_name  transcription   keywords  
##    <int> <chr>          <chr>            <chr>        <chr>           <chr>     
##  1     0 " A 23-year-o " Allergy / Imm " Allergic  "SUBJECTIVE:,  "allergy 
##  2     1 " Consult for " Bariatrics"    " Laparosco "PAST MEDICAL  "bariatri
##  3     2 " Consult for " Bariatrics"    " Laparosco "HISTORY OF PR "bariatri
##  4     3 " 2-D M-Mode. " Cardiovascula " 2-D Echoc "2-D M-MODE: , "cardiova
##  5     4 " 2-D Echocar " Cardiovascula " 2-D Echoc "1.  The left  "cardiova
##  6     5 " Morbid obes " Bariatrics"    " Laparosco "PREOPERATIVE  "bariatri
##  7     6 " Liposuction " Bariatrics"    " Liposucti "PREOPERATIVE  "bariatri
##  8     7 " 2-D Echocar " Cardiovascula " 2-D Echoc "2-D ECHOCARDI "cardiova
##  9     8 " Suction-ass " Bariatrics"    " Lipectomy "PREOPERATIVE  "bariatri
## 10     9 " Echocardiog " Cardiovascula " 2-D Echoc "DESCRIPTION:, "cardiova
## #  with 4,989 more rows
…
